interactions:
- request:
    body: null
    headers:
      Accept:
      - application/vnd.api+json
      Api-Key:
      - test-api-key
      Content-Type:
      - application/vnd.api+json
    method: GET
    uri: https://sandbox-api.didww.com/v3/address_requirements
  response:
    body:
      string: '{"data":[{"id":"b6c80acb-3952-4d53-9e62-fe2348c0636b","type":"address_requirements","attributes":{"identity_type":"Any","personal_area_level":"country","business_area_level":"world_wide","address_area_level":"Area","personal_proof_qty":1,"business_proof_qty":2,"address_proof_qty":1,"personal_mandatory_fields":["Country"],"business_mandatory_fields":null,"service_description_required":false,"restriction_message":"Needs end user registration."},"relationships":{"country":{"links":{"self":"https://sandbox-api.didww.com/v3/address_requirements/b6c80acb-3952-4d53-9e62-fe2348c0636b/relationships/country","related":"https://sandbox-api.didww.com/v3/address_requirements/b6c80acb-3952-4d53-9e62-fe2348c0636b/country"}},"did_group_type":{"links":{"self":"https://sandbox-api.didww.com/v3/address_requirements/b6c80acb-3952-4d53-9e62-fe2348c0636b/relationships/did_group_type","related":"https://sandbox-api.didww.com/v3/address_requirements/b6c80acb-3952-4d53-9e62-fe2348c0636b/did_group_type"}},"personal_permanent_document":{"links":{"self":"https://sandbox-api.didww.com/v3/address_requirements/b6c80acb-3952-4d53-9e62-fe2348c0636b/relationships/personal_permanent_document","related":"https://sandbox-api.didww.com/v3/address_requirements/b6c80acb-3952-4d53-9e62-fe2348c0636b/personal_permanent_document"}},"business_permanent_document":{"links":{"self":"https://sandbox-api.didww.com/v3/address_requirements/b6c80acb-3952-4d53-9e62-fe2348c0636b/relationships/business_permanent_document","related":"https://sandbox-api.didww.com/v3/address_requirements/b6c80acb-3952-4d53-9e62-fe2348c0636b/business_permanent_document"}},"personal_onetime_document":{"links":{"self":"https://sandbox-api.didww.com/v3/address_requirements/b6c80acb-3952-4d53-9e62-fe2348c0636b/relationships/personal_onetime_document","related":"https://sandbox-api.didww.com/v3/address_requirements/b6c80acb-3952-4d53-9e62-fe2348c0636b/personal_onetime_document"}},"business_onetime_document":{"links":{"self":"https://sandbox-api.didww.com/v3/address_requirements/b6c80acb-3952-4d53-9e62-fe2348c0636b/relationships/business_onetime_document","related":"https://sandbox-api.didww.com/v3/address_requirements/b6c80acb-3952-4d53-9e62-fe2348c0636b/business_onetime_document"}},"personal_proof_types":{"links":{"self":"https://sandbox-api.didww.com/v3/address_requirements/b6c80acb-3952-4d53-9e62-fe2348c0636b/relationships/personal_proof_types","related":"https://sandbox-api.didww.com/v3/address_requirements/b6c80acb-3952-4d53-9e62-fe2348c0636b/personal_proof_types"}},"business_proof_types":{"links":{"self":"https://sandbox-api.didww.com/v3/address_requirements/b6c80acb-3952-4d53-9e62-fe2348c0636b/relationships/business_proof_types","related":"https://sandbox-api.didww.com/v3/address_requirements/b6c80acb-3952-4d53-9e62-fe2348c0636b/business_proof_types"}},"address_proof_types":{"links":{"self":"https://sandbox-api.didww.com/v3/address_requirements/b6c80acb-3952-4d53-9e62-fe2348c0636b/relationships/address_proof_types","related":"https://sandbox-api.didww.com/v3/address_requirements/b6c80acb-3952-4d53-9e62-fe2348c0636b/address_proof_types"}}}},{"id":"51b293af-a496-4bf2-9c68-5221b3b0dc1e","type":"address_requirements","attributes":{"identity_type":"Any","personal_area_level":"country","business_area_level":"country","address_area_level":"Country","personal_proof_qty":2,"business_proof_qty":1,"address_proof_qty":1,"personal_mandatory_fields":["Country"],"business_mandatory_fields":["Country"],"service_description_required":false,"restriction_message":"restriction_message"},"relationships":{"country":{"links":{"self":"https://sandbox-api.didww.com/v3/address_requirements/51b293af-a496-4bf2-9c68-5221b3b0dc1e/relationships/country","related":"https://sandbox-api.didww.com/v3/address_requirements/51b293af-a496-4bf2-9c68-5221b3b0dc1e/country"}},"did_group_type":{"links":{"self":"https://sandbox-api.didww.com/v3/address_requirements/51b293af-a496-4bf2-9c68-5221b3b0dc1e/relationships/did_group_type","related":"https://sandbox-api.didww.com/v3/address_requirements/51b293af-a496-4bf2-9c68-5221b3b0dc1e/did_group_type"}},"personal_permanent_document":{"links":{"self":"https://sandbox-api.didww.com/v3/address_requirements/51b293af-a496-4bf2-9c68-5221b3b0dc1e/relationships/personal_permanent_document","related":"https://sandbox-api.didww.com/v3/address_requirements/51b293af-a496-4bf2-9c68-5221b3b0dc1e/personal_permanent_document"}},"business_permanent_document":{"links":{"self":"https://sandbox-api.didww.com/v3/address_requirements/51b293af-a496-4bf2-9c68-5221b3b0dc1e/relationships/business_permanent_document","related":"https://sandbox-api.didww.com/v3/address_requirements/51b293af-a496-4bf2-9c68-5221b3b0dc1e/business_permanent_document"}},"personal_onetime_document":{"links":{"self":"https://sandbox-api.didww.com/v3/address_requirements/51b293af-a496-4bf2-9c68-5221b3b0dc1e/relationships/personal_onetime_document","related":"https://sandbox-api.didww.com/v3/address_requirements/51b293af-a496-4bf2-9c68-5221b3b0dc1e/personal_onetime_document"}},"business_onetime_document":{"links":{"self":"https://sandbox-api.didww.com/v3/address_requirements/51b293af-a496-4bf2-9c68-5221b3b0dc1e/relationships/business_onetime_document","related":"https://sandbox-api.didww.com/v3/address_requirements/51b293af-a496-4bf2-9c68-5221b3b0dc1e/business_onetime_document"}},"personal_proof_types":{"links":{"self":"https://sandbox-api.didww.com/v3/address_requirements/51b293af-a496-4bf2-9c68-5221b3b0dc1e/relationships/personal_proof_types","related":"https://sandbox-api.didww.com/v3/address_requirements/51b293af-a496-4bf2-9c68-5221b3b0dc1e/personal_proof_types"}},"business_proof_types":{"links":{"self":"https://sandbox-api.didww.com/v3/address_requirements/51b293af-a496-4bf2-9c68-5221b3b0dc1e/relationships/business_proof_types","related":"https://sandbox-api.didww.com/v3/address_requirements/51b293af-a496-4bf2-9c68-5221b3b0dc1e/business_proof_types"}},"address_proof_types":{"links":{"self":"https://sandbox-api.didww.com/v3/address_requirements/51b293af-a496-4bf2-9c68-5221b3b0dc1e/relationships/address_proof_types","related":"https://sandbox-api.didww.com/v3/address_requirements/51b293af-a496-4bf2-9c68-5221b3b0dc1e/address_proof_types"}}}},{"id":"f7c2a9a4-a40e-4f22-98ff-0f53c86052ac","type":"address_requirements","attributes":{"identity_type":"Any","personal_area_level":"world_wide","business_area_level":"country","address_area_level":"world_wide","personal_proof_qty":1,"business_proof_qty":1,"address_proof_qty":1,"personal_mandatory_fields":null,"business_mandatory_fields":["Country"],"service_description_required":false,"restriction_message":"restriction_message"},"relationships":{"country":{"links":{"self":"https://sandbox-api.didww.com/v3/address_requirements/f7c2a9a4-a40e-4f22-98ff-0f53c86052ac/relationships/country","related":"https://sandbox-api.didww.com/v3/address_requirements/f7c2a9a4-a40e-4f22-98ff-0f53c86052ac/country"}},"did_group_type":{"links":{"self":"https://sandbox-api.didww.com/v3/address_requirements/f7c2a9a4-a40e-4f22-98ff-0f53c86052ac/relationships/did_group_type","related":"https://sandbox-api.didww.com/v3/address_requirements/f7c2a9a4-a40e-4f22-98ff-0f53c86052ac/did_group_type"}},"personal_permanent_document":{"links":{"self":"https://sandbox-api.didww.com/v3/address_requirements/f7c2a9a4-a40e-4f22-98ff-0f53c86052ac/relationships/personal_permanent_document","related":"https://sandbox-api.didww.com/v3/address_requirements/f7c2a9a4-a40e-4f22-98ff-0f53c86052ac/personal_permanent_document"}},"business_permanent_document":{"links":{"self":"https://sandbox-api.didww.com/v3/address_requirements/f7c2a9a4-a40e-4f22-98ff-0f53c86052ac/relationships/business_permanent_document","related":"https://sandbox-api.didww.com/v3/address_requirements/f7c2a9a4-a40e-4f22-98ff-0f53c86052ac/business_permanent_document"}},"personal_onetime_document":{"links":{"self":"https://sandbox-api.didww.com/v3/address_requirements/f7c2a9a4-a40e-4f22-98ff-0f53c86052ac/relationships/personal_onetime_document","related":"https://sandbox-api.didww.com/v3/address_requirements/f7c2a9a4-a40e-4f22-98ff-0f53c86052ac/personal_onetime_document"}},"business_onetime_document":{"links":{"self":"https://sandbox-api.didww.com/v3/address_requirements/f7c2a9a4-a40e-4f22-98ff-0f53c86052ac/relationships/business_onetime_document","related":"https://sandbox-api.didww.com/v3/address_requirements/f7c2a9a4-a40e-4f22-98ff-0f53c86052ac/business_onetime_document"}},"personal_proof_types":{"links":{"self":"https://sandbox-api.didww.com/v3/address_requirements/f7c2a9a4-a40e-4f22-98ff-0f53c86052ac/relationships/personal_proof_types","related":"https://sandbox-api.didww.com/v3/address_requirements/f7c2a9a4-a40e-4f22-98ff-0f53c86052ac/personal_proof_types"}},"business_proof_types":{"links":{"self":"https://sandbox-api.didww.com/v3/address_requirements/f7c2a9a4-a40e-4f22-98ff-0f53c86052ac/relationships/business_proof_types","related":"https://sandbox-api.didww.com/v3/address_requirements/f7c2a9a4-a40e-4f22-98ff-0f53c86052ac/business_proof_types"}},"address_proof_types":{"links":{"self":"https://sandbox-api.didww.com/v3/address_requirements/f7c2a9a4-a40e-4f22-98ff-0f53c86052ac/relationships/address_proof_types","related":"https://sandbox-api.didww.com/v3/address_requirements/f7c2a9a4-a40e-4f22-98ff-0f53c86052ac/address_proof_types"}}}},{"id":"edb71cff-d5e8-44ff-ba36-6f758066c175","type":"address_requirements","attributes":{"identity_type":"Any","personal_area_level":"country","business_area_level":"country","address_area_level":"Country","personal_proof_qty":1,"business_proof_qty":1,"address_proof_qty":0,"personal_mandatory_fields":["Country"],"business_mandatory_fields":["Country"],"service_description_required":true,"restriction_message":"restriction_message"},"relationships":{"country":{"links":{"self":"https://sandbox-api.didww.com/v3/address_requirements/edb71cff-d5e8-44ff-ba36-6f758066c175/relationships/country","related":"https://sandbox-api.didww.com/v3/address_requirements/edb71cff-d5e8-44ff-ba36-6f758066c175/country"}},"did_group_type":{"links":{"self":"https://sandbox-api.didww.com/v3/address_requirements/edb71cff-d5e8-44ff-ba36-6f758066c175/relationships/did_group_type","related":"https://sandbox-api.didww.com/v3/address_requirements/edb71cff-d5e8-44ff-ba36-6f758066c175/did_group_type"}},"personal_permanent_document":{"links":{"self":"https://sandbox-api.didww.com/v3/address_requirements/edb71cff-d5e8-44ff-ba36-6f758066c175/relationships/personal_permanent_document","related":"https://sandbox-api.didww.com/v3/address_requirements/edb71cff-d5e8-44ff-ba36-6f758066c175/personal_permanent_document"}},"business_permanent_document":{"links":{"self":"https://sandbox-api.didww.com/v3/address_requirements/edb71cff-d5e8-44ff-ba36-6f758066c175/relationships/business_permanent_document","related":"https://sandbox-api.didww.com/v3/address_requirements/edb71cff-d5e8-44ff-ba36-6f758066c175/business_permanent_document"}},"personal_onetime_document":{"links":{"self":"https://sandbox-api.didww.com/v3/address_requirements/edb71cff-d5e8-44ff-ba36-6f758066c175/relationships/personal_onetime_document","related":"https://sandbox-api.didww.com/v3/address_requirements/edb71cff-d5e8-44ff-ba36-6f758066c175/personal_onetime_document"}},"business_onetime_document":{"links":{"self":"https://sandbox-api.didww.com/v3/address_requirements/edb71cff-d5e8-44ff-ba36-6f758066c175/relationships/business_onetime_document","related":"https://sandbox-api.didww.com/v3/address_requirements/edb71cff-d5e8-44ff-ba36-6f758066c175/business_onetime_document"}},"personal_proof_types":{"links":{"self":"https://sandbox-api.didww.com/v3/address_requirements/edb71cff-d5e8-44ff-ba36-6f758066c175/relationships/personal_proof_types","related":"https://sandbox-api.didww.com/v3/address_requirements/edb71cff-d5e8-44ff-ba36-6f758066c175/personal_proof_types"}},"business_proof_types":{"links":{"self":"https://sandbox-api.didww.com/v3/address_requirements/edb71cff-d5e8-44ff-ba36-6f758066c175/relationships/business_proof_types","related":"https://sandbox-api.didww.com/v3/address_requirements/edb71cff-d5e8-44ff-ba36-6f758066c175/business_proof_types"}},"address_proof_types":{"links":{"self":"https://sandbox-api.didww.com/v3/address_requirements/edb71cff-d5e8-44ff-ba36-6f758066c175/relationships/address_proof_types","related":"https://sandbox-api.didww.com/v3/address_requirements/edb71cff-d5e8-44ff-ba36-6f758066c175/address_proof_types"}}}},{"id":"90b72a1a-1ebd-4771-b818-f7123f8ff7ec","type":"address_requirements","attributes":{"identity_type":"Any","personal_area_level":"world_wide","business_area_level":"world_wide","address_area_level":"world_wide","personal_proof_qty":0,"business_proof_qty":0,"address_proof_qty":0,"personal_mandatory_fields":null,"business_mandatory_fields":null,"service_description_required":false,"restriction_message":"restriction_message"},"relationships":{"country":{"links":{"self":"https://sandbox-api.didww.com/v3/address_requirements/90b72a1a-1ebd-4771-b818-f7123f8ff7ec/relationships/country","related":"https://sandbox-api.didww.com/v3/address_requirements/90b72a1a-1ebd-4771-b818-f7123f8ff7ec/country"}},"did_group_type":{"links":{"self":"https://sandbox-api.didww.com/v3/address_requirements/90b72a1a-1ebd-4771-b818-f7123f8ff7ec/relationships/did_group_type","related":"https://sandbox-api.didww.com/v3/address_requirements/90b72a1a-1ebd-4771-b818-f7123f8ff7ec/did_group_type"}},"personal_permanent_document":{"links":{"self":"https://sandbox-api.didww.com/v3/address_requirements/90b72a1a-1ebd-4771-b818-f7123f8ff7ec/relationships/personal_permanent_document","related":"https://sandbox-api.didww.com/v3/address_requirements/90b72a1a-1ebd-4771-b818-f7123f8ff7ec/personal_permanent_document"}},"business_permanent_document":{"links":{"self":"https://sandbox-api.didww.com/v3/address_requirements/90b72a1a-1ebd-4771-b818-f7123f8ff7ec/relationships/business_permanent_document","related":"https://sandbox-api.didww.com/v3/address_requirements/90b72a1a-1ebd-4771-b818-f7123f8ff7ec/business_permanent_document"}},"personal_onetime_document":{"links":{"self":"https://sandbox-api.didww.com/v3/address_requirements/90b72a1a-1ebd-4771-b818-f7123f8ff7ec/relationships/personal_onetime_document","related":"https://sandbox-api.didww.com/v3/address_requirements/90b72a1a-1ebd-4771-b818-f7123f8ff7ec/personal_onetime_document"}},"business_onetime_document":{"links":{"self":"https://sandbox-api.didww.com/v3/address_requirements/90b72a1a-1ebd-4771-b818-f7123f8ff7ec/relationships/business_onetime_document","related":"https://sandbox-api.didww.com/v3/address_requirements/90b72a1a-1ebd-4771-b818-f7123f8ff7ec/business_onetime_document"}},"personal_proof_types":{"links":{"self":"https://sandbox-api.didww.com/v3/address_requirements/90b72a1a-1ebd-4771-b818-f7123f8ff7ec/relationships/personal_proof_types","related":"https://sandbox-api.didww.com/v3/address_requirements/90b72a1a-1ebd-4771-b818-f7123f8ff7ec/personal_proof_types"}},"business_proof_types":{"links":{"self":"https://sandbox-api.didww.com/v3/address_requirements/90b72a1a-1ebd-4771-b818-f7123f8ff7ec/relationships/business_proof_types","related":"https://sandbox-api.didww.com/v3/address_requirements/90b72a1a-1ebd-4771-b818-f7123f8ff7ec/business_proof_types"}},"address_proof_types":{"links":{"self":"https://sandbox-api.didww.com/v3/address_requirements/90b72a1a-1ebd-4771-b818-f7123f8ff7ec/relationships/address_proof_types","related":"https://sandbox-api.didww.com/v3/address_requirements/90b72a1a-1ebd-4771-b818-f7123f8ff7ec/address_proof_types"}}}}],"meta":{"total_records":73,"api_version":"2026-04-16"},"links":{"first":"https://sandbox-api.didww.com/v3/address_requirements?page%5Bnumber%5D=1&page%5Bsize%5D=5","next":"https://sandbox-api.didww.com/v3/address_requirements?page%5Bnumber%5D=2&page%5Bsize%5D=5","last":"https://sandbox-api.didww.com/v3/address_requirements?page%5Bnumber%5D=15&page%5Bsize%5D=5"}}'
    headers:
      Content-Type:
      - application/vnd.api+json
    status:
      code: 200
      message: OK
version: 1
